<?xml version="1.0" encoding="utf-8"?>
<!-- Generator: Adobe Illustrator 24.3.0, SVG Export Plug-In . SVG Version: 6.00 Build 0)  -->
<svg version="1.1" id="圖層_1" xmlns="http://www.w3.org/2000/svg" xmlns:xlink="http://www.w3.org/1999/xlink" x="0px" y="0px"
	 viewBox="0 0 66 66" style="enable-background:new 0 0 66 66;" xml:space="preserve">
<style type="text/css">
	.st0{fill:#FFE114;}
</style>
<path class="st0" d="M23.7,62V51.9c0-2.6,2.1-4.7,4.6-4.7h9.4c1.2,0,2.4,0.5,3.3,1.4c0.9,0.9,1.4,2.1,1.4,3.3V62
	c0,1.1,0.4,2.1,1.2,2.9c0.8,0.8,1.8,1.2,2.8,1.2h6.4c3,0,5.9-1.2,8-3.3c2.1-2.1,3.3-5,3.3-8V26c0-2.4-1.1-4.7-2.9-6.3L39.3,2.2
	c-3.8-3.1-9.2-3-12.9,0.2L5.2,19.7C3.2,21.2,2.1,23.5,2,26v28.7C2,60.9,7,66,13.3,66h6.3C21.7,66,23.5,64.2,23.7,62L23.7,62z"/>
</svg>
